{
  "collectionName": "components_content_editors",
  "info": {
    "displayName": "Editor",
    "icon": "align-justify",
    "description": ""
  },
  "options": {},
  "attributes": {
    "content": {
      "type": "richtext"
    }
  }
}
