{
  "collectionName": "components_items_content_items",
  "info": {
    "displayName": "Content Item",
    "icon": "angle-double-down",
    "description": ""
  },
  "options": {},
  "attributes": {
    "content": {
      "type": "string"
    },
    "author": {
      "type": "string"
    }
  }
}
