{
  "key": "plugin_content_manager_configuration_content_types::api::faq.faq",
  "value": {
    "uid": "api::faq.faq",
    "settings": {
      "bulkable": true,
      "filterable": true,
      "searchable": true,
      "pageSize": 10,
      "mainField": "question",
      "defaultSortBy": "question",
      "defaultSortOrder": "ASC"
    },
    "metadatas": {
      "id": {
        "edit": {},
        "list": {
          "label": "id",
          "searchable": true,
          "sortable": true
        }
      },
      "question": {
        "edit": {
          "label": "Question",
          "description": "",
          "placeholder": "",
          "visible": true,
          "editable": true
        },
        "list": {
          "label": "question",
          "searchable": true,
          "sortable": true
        }
      },
      "answer": {
        "edit": {
          "label": "Answer",
          "description": "",
          "placeholder": "",
          "visible": true,
          "editable": true
        },
        "list": {
          "label": "answer",
          "searchable": true,
          "sortable": true
        }
      },
      "createdAt": {
        "edit": {
          "label": "createdAt",
          "description": "",
          "placeholder": "",
          "visible": false,
          "editable": true
        },
        "list": {
          "label": "createdAt",
          "searchable": true,
          "sortable": true
        }
      },
      "updatedAt": {
        "edit": {
          "label": "updatedAt",
          "description": "",
          "placeholder": "",
          "visible": false,
          "editable": true
        },
        "list": {
          "label": "updatedAt",
          "searchable": true,
          "sortable": true
        }
      }
    },
    "layouts": {
      "edit": [
        [
          {
            "name": "question",
            "size": 12
          }
        ],
        [
          {
            "name": "answer",
            "size": 12
          }
        ]
      ],
      "editRelations": [],
      "list": [
        "question",
        "answer"
      ]
    }
  },
  "type": "object",
  "environment": null,
  "tag": null
}