{
  "key": "plugin_content_manager_configuration_content_types::api::config.config",
  "value": {
    "uid": "api::config.config",
    "settings": {
      "bulkable": true,
      "filterable": true,
      "searchable": true,
      "pageSize": 10,
      "mainField": "sidebarId",
      "defaultSortBy": "sidebarId",
      "defaultSortOrder": "ASC"
    },
    "metadatas": {
      "id": {
        "edit": {},
        "list": {
          "label": "id",
          "searchable": true,
          "sortable": true
        }
      },
      "sidebarId": {
        "edit": {
          "label": "Sidebar ID ",
          "description": "",
          "placeholder": "",
          "visible": true,
          "editable": true
        },
        "list": {
          "label": "sidebarId",
          "searchable": true,
          "sortable": true
        }
      },
      "conclusionId": {
        "edit": {
          "label": "Conclusion ID",
          "description": "",
          "placeholder": "",
          "visible": true,
          "editable": true
        },
        "list": {
          "label": "conclusionId",
          "searchable": true,
          "sortable": true
        }
      },
      "buttonBrokersId": {
        "edit": {
          "label": "Brokers Button ID",
          "description": "",
          "placeholder": "",
          "visible": true,
          "editable": true
        },
        "list": {
          "label": "buttonBrokersId",
          "searchable": true,
          "sortable": true
        }
      },
      "heroButtonId": {
        "edit": {
          "label": "Hero Button ID",
          "description": "",
          "placeholder": "",
          "visible": true,
          "editable": true
        },
        "list": {
          "label": "heroButtonId",
          "searchable": true,
          "sortable": true
        }
      },
      "createdAt": {
        "edit": {
          "label": "createdAt",
          "description": "",
          "placeholder": "",
          "visible": false,
          "editable": true
        },
        "list": {
          "label": "createdAt",
          "searchable": true,
          "sortable": true
        }
      },
      "updatedAt": {
        "edit": {
          "label": "updatedAt",
          "description": "",
          "placeholder": "",
          "visible": false,
          "editable": true
        },
        "list": {
          "label": "updatedAt",
          "searchable": true,
          "sortable": true
        }
      }
    },
    "layouts": {
      "edit": [
        [
          {
            "name": "conclusionId",
            "size": 12
          }
        ],
        [
          {
            "name": "buttonBrokersId",
            "size": 12
          }
        ],
        [
          {
            "name": "sidebarId",
            "size": 12
          }
        ],
        [
          {
            "name": "heroButtonId",
            "size": 12
          }
        ]
      ],
      "editRelations": [],
      "list": [
        "id",
        "conclusionId",
        "buttonBrokersId",
        "sidebarId"
      ]
    }
  },
  "type": "object",
  "environment": null,
  "tag": null
}