{
  "key": "plugin_navigation_config",
  "value": {
    "contentTypes": [],
    "contentTypesNameFields": {
      "default": [
        "title",
        "subject",
        "name"
      ]
    },
    "contentTypesPopulate": {},
    "additionalFields": [
      "audience"
    ],
    "allowedLevels": 2,
    "gql": {
      "navigationItemRelated": []
    }
  },
  "type": "object",
  "environment": null,
  "tag": null
}