{
  "name": "Public",
  "description": "Default role given to unauthenticated user.",
  "type": "public",
  "permissions": [
    {
      "action": "api::broker.broker.find"
    },
    {
      "action": "api::category.category.find"
    },
    {
      "action": "api::category.category.findOne"
    },
    {
      "action": "api::config.config.find"
    },
    {
      "action": "api::faq.faq.find"
    },
    {
      "action": "api::faq.faq.findOne"
    },
    {
      "action": "api::index-page.index-page.delete"
    },
    {
      "action": "api::index-page.index-page.find"
    },
    {
      "action": "api::index-page.index-page.update"
    },
    {
      "action": "api::navigation.navigation.find"
    },
    {
      "action": "api::publication.publication.find"
    },
    {
      "action": "api::publication.publication.findOne"
    },
    {
      "action": "api::tag.tag.find"
    },
    {
      "action": "api::tag.tag.findOne"
    },
    {
      "action": "plugin::users-permissions.auth.callback"
    },
    {
      "action": "plugin::users-permissions.auth.connect"
    },
    {
      "action": "plugin::users-permissions.auth.register"
    },
    {
      "action": "plugin::users-permissions.user.me"
    }
  ]
}