{
  "kind": "collectionType",
  "collectionName": "brokers",
  "info": {
    "singularName": "broker",
    "pluralName": "brokers",
    "displayName": "Broker",
    "description": ""
  },
  "options": {
    "draftAndPublish": true
  },
  "pluginOptions": {},
  "attributes": {
    "name": {
      "type": "string",
      "required": true
    },
    "star": {
      "type": "integer",
      "default": 5,
      "max": 5,
      "min": 1,
      "required": true
    },
    "desc": {
      "type": "text",
      "required": true
    },
    "features": {
      "displayName": "Features Item",
      "type": "component",
      "repeatable": true,
      "component": "items.features-item",
      "required": true
    },
    "compares": {
      "displayName": "Compare",
      "type": "component",
      "repeatable": true,
      "component": "items.compare",
      "required": true
    },
    "selected": {
      "type": "boolean",
      "default": false,
      "required": true
    },
    "logo": {
      "type": "media",
      "multiple": false,
      "required": true,
      "allowedTypes": [
        "images"
      ]
    },
    "button": {
      "type": "component",
      "repeatable": false,
      "component": "shared.button"
    },
    "showOnIndex": {
      "type": "boolean",
      "required": true,
      "default": false
    },
    "visiter": {
      "type": "component",
      "repeatable": false,
      "component": "shared.button",
      "required": true
    },
    "avis": {
      "type": "component",
      "repeatable": false,
      "component": "shared.button",
      "required": true
    }
  }
}
