<svg width="27" height="24" viewBox="0 0 27 24" fill="none" xmlns="http://www.w3.org/2000/svg">
<path d="M26.46 4.73667C24.8267 5.33556 23.5744 6.26111 22.7033 7.51333C21.8867 8.76555 21.4783 10.2628 21.4783 12.005H26.46V23.03H16.2517V12.005C16.2517 10.4806 16.5239 9.065 17.0683 7.75834C17.6128 6.45167 18.3478 5.30834 19.2733 4.32833C20.1989 3.29389 21.2606 2.42278 22.4583 1.715C23.7106 1.00722 25.0444 0.435556 26.46 0V4.73667ZM10.2083 4.73667C8.575 5.33556 7.32278 6.26111 6.45167 7.51333C5.635 8.76555 5.22667 10.2628 5.22667 12.005H10.2083V23.03H0V12.005C0 10.4806 0.272222 9.065 0.816667 7.75834C1.36111 6.45167 2.09611 5.30834 3.02167 4.32833C3.94722 3.29389 5.00889 2.42278 6.20667 1.715C7.45889 1.00722 8.79278 0.435556 10.2083 0V4.73667Z" fill="#808895"/>
</svg>
