{
  "collectionName": "components_sections_asides",
  "info": {
    "displayName": "Aside",
    "icon": "angle-down",
    "description": ""
  },
  "options": {},
  "attributes": {
    "name": {
      "type": "string"
    },
    "items": {
      "type": "component",
      "repeatable": true,
      "component": "items.aside-items"
    }
  }
}
