{
  "collectionName": "components_faq_faqs",
  "info": {
    "displayName": "FAQ",
    "icon": "adjust",
    "description": ""
  },
  "options": {},
  "attributes": {
    "title": {
      "type": "string",
      "default": "FAQ"
    },
    "items": {
      "type": "relation",
      "relation": "oneToMany",
      "target": "api::faq.faq"
    }
  }
}
