{
  "collectionName": "components_sections_we_haves",
  "info": {
    "displayName": "We have",
    "icon": "align-left"
  },
  "options": {},
  "attributes": {
    "title": {
      "type": "string"
    },
    "items": {
      "displayName": "We have Items",
      "type": "component",
      "repeatable": true,
      "component": "items.we-have-items"
    }
  }
}
