{
  "kind": "collectionType",
  "collectionName": "publications",
  "info": {
    "singularName": "publication",
    "pluralName": "publications",
    "displayName": "Post",
    "description": ""
  },
  "options": {
    "draftAndPublish": true
  },
  "pluginOptions": {},
  "attributes": {
    "image": {
      "type": "media",
      "multiple": false,
      "required": true,
      "allowedTypes": [
        "images"
      ]
    },
    "category": {
      "type": "relation",
      "relation": "oneToOne",
      "target": "api::category.category"
    },
    "stars": {
      "type": "integer",
      "default": 5,
      "max": 5,
      "min": 1,
      "required": true
    },
    "name": {
      "type": "string",
      "required": true
    },
    "desc": {
      "type": "text",
      "required": true
    },
    "slug": {
      "type": "uid",
      "targetField": "name",
      "required": true
    },
    "tags": {
      "type": "relation",
      "relation": "oneToMany",
      "target": "api::tag.tag"
    },
    "components": {
      "type": "dynamiczone",
      "components": [
        "content.brokers",
        "content.button",
        "content.compares",
        "content.editor"
      ],
      "required": true
    },
    "support": {
      "displayName": "Support",
      "type": "component",
      "repeatable": false,
      "component": "sections.support",
      "required": true
    },
    "conclusion": {
      "displayName": "Conclusion",
      "type": "component",
      "repeatable": false,
      "component": "sections.conclusion",
      "required": false
    },
    "button": {
      "type": "component",
      "repeatable": false,
      "component": "shared.button"
    },
    "seo": {
      "type": "component",
      "repeatable": false,
      "component": "shared.seo"
    },
    "faq": {
      "type": "component",
      "repeatable": false,
      "component": "sections.faq"
    },
    "postFaq": {
      "displayName": "postFaq",
      "type": "component",
      "repeatable": true,
      "component": "sections.post-faq"
    }
  }
}
